signatureSearch - Environment for Gene Expression Searching Combined with Functional Enrichment Analysis
…
## Warning: `overscope_eval_next()` is deprecated as of rlang 0.2.0.
## Please use `eval_tidy()` with a data mask instead.
## This warning is displayed once per session.

## Warning: `overscope_clean()` is deprecated as of rlang 0.2.0.
## This warning is displayed once per session.

cmap

## #
## # gessResult object 
## #
## @result 
## # A tibble: 100 x 9
##    pert           cell  type   trend raw_score scaled_score N_upset N_downset t_gn_sym                                                                            
##    <chr>          <chr> <chr>  <chr>     <dbl>        <dbl>   <int>     <int> <chr>                                                                               
##  1 vorinostat     SKB   trt_cp up        1.98         1         150       150 HDAC1; HDAC10; HDAC11; HDAC2; HDAC3; HDAC4; HDAC5; HDAC6; HDAC7; HDAC8; HDAC9       
##  2 rescinnamine   SKB   trt_cp down     -0.361       -1         150       150 ACE                                                                                 
##  3 thalidomide    SKB   trt_cp down     -0.358       -0.991     150       150 CRBN; CYP1A2; CYP2B6; CYP3A5; DDB1; FGF2; FGFR2; IL10; NFKB1; ORM1; ORM2; TNF; VEGFA
##  4 trichostatin-a SKB   trt_cp up        1.62         0.821     150       150 HDAC1; HDAC10; HDAC2; HDAC3; HDAC4; HDAC5; HDAC6; HDAC7; HDAC8; HDAC9               
##  5 HC-toxin       SKB   trt_cp up        1.54         0.779     150       150 HDAC1                                                                               
##  6 ST-4028268     SKB   trt_cp down     -0.263       -0.728     150       150 <NA>                                                                                
##  7 UCL-2077       SKB   trt_cp down     -0.241       -0.669     150       150 <NA>                                                                                
##  8 pyroxamide     SKB   trt_cp up        0.741        0.375     150       150 HDAC1; HDAC3; HDAC6                                                                 
##  9 XMD-892        SKB   trt_cp up        0.672        0.340     150       150 DCLK2; LRRK2; MAPK7; PLK4; TNK1                                                     
## 10 BW-B70C        SKB   trt_cp up        0.482        0.244     150       150 ALOX5                                                                               
## # ... with 90 more rows
## @query    up gene set (150):      230 5357 8607 154 3800 2015 2542 1759 6195 8503 ... 
##           down gene set (150):    11325 1387 4055 11152 58525 3190 8099 10409 3569 3383 ... 
## 
## @gess_method      CMAP 
## 
## @refdb    /rhome/tgirke/R/x86_64-pc-linux-gnu-library/3.6/signatureSearch/extdata/sample_db.h5

result(cmap)

## # A tibble: 100 x 9
##    pert           cell  type   trend raw_score scaled_score N_upset N_downset t_gn_sym                                                                            
##    <chr>          <chr> <chr>  <chr>     <dbl>        <dbl>   <int>     <int> <chr>                                                                               
##  1 vorinostat     SKB   trt_cp up        1.98         1         150       150 HDAC1; HDAC10; HDAC11; HDAC2; HDAC3; HDAC4; HDAC5; HDAC6; HDAC7; HDAC8; HDAC9       
##  2 rescinnamine   SKB   trt_cp down     -0.361       -1         150       150 ACE                                                                                 
##  3 thalidomide    SKB   trt_cp down     -0.358       -0.991     150       150 CRBN; CYP1A2; CYP2B6; CYP3A5; DDB1; FGF2; FGFR2; IL10; NFKB1; ORM1; ORM2; TNF; VEGFA
##  4 trichostatin-a SKB   trt_cp up        1.62         0.821     150       150 HDAC1; HDAC10; HDAC2; HDAC3; HDAC4; HDAC5; HDAC6; HDAC7; HDAC8; HDAC9               
##  5 HC-toxin       SKB   trt_cp up        1.54         0.779     150       150 HDAC1                                                                               
##  6 ST-4028268     SKB   trt_cp down     -0.263       -0.728     150       150 <NA>                                                                                
##  7 UCL-2077       SKB   trt_cp down     -0.241       -0.669     150       150 <NA>                                                                                
##  8 pyroxamide     SKB   trt_cp up        0.741        0.375     150       150 HDAC1; HDAC3; HDAC6                                                                 
##  9 XMD-892        SKB   trt_cp up        0.672        0.340     150       150 DCLK2; LRRK2; MAPK7; PLK4; TNK1                                                     
## 10 BW-B70C        SKB   trt_cp up        0.482        0.244     150       150 ALOX5                                                                               
## # ... with 90 more rows
…
Subramanian et al. (2017) introduced a more complex GESS algorithm, here referred to as LINCS. While related to CMAP, there are several important differences among the two approaches. First, LINCS weights the query genes based on the corresponding differential expression scores of the GESs in the reference database (e.g. LFC or z-scores). Thus, the reference database used by LINCS needs to store the actual score values rather than their ranks. Another relevant difference is that the LINCS algorithm uses a bi-directional weighted Kolmogorov-Smirnov enrichment statistic (ES) as similarity metric. To the best of our knowledge, the LINCS search functionality in signatureSearch provides the first downloadable standalone software implementation of this algorithm.

In the following example the qSig object for the LINCS method is initialized the same way as the corresponding CMAP object above with the exception that LINCS needs to be specified under the gess_method argument.

qsig_lincs <- qSig(query = list(upset=upset, downset=downset), 
                   gess_method="LINCS", refdb=db_path)

## 150 / 150 genes in up set share identifiers with reference database

## 150 / 150 genes in down set share identifiers with reference database

lincs <- gess_lincs(qsig_lincs, sortby="NCS", tau=FALSE)
result(lincs)

## # A tibble: 100 x 12
##    pert                    cell  type   trend  WTCS  WTCS_Pval  WTCS_FDR   NCS NCSct N_upset N_downset t_gn_sym                                                                     
##    <chr>                   <chr> <chr>  <chr> <dbl>      <dbl>     <dbl> <dbl> <dbl>   <int>     <int> <chr>                                                                        
##  1 vorinostat              SKB   trt_cp up    1     0          0          2.47  2.47     150       150 HDAC1; HDAC10; HDAC11; HDAC2; HDAC3; HDAC4; HDAC5; HDAC6; HDAC7; HDAC8; HDAC9
##  2 trichostatin-a          SKB   trt_cp up    0.901 0.00000431 0.0000938  2.23  2.23     150       150 HDAC1; HDAC10; HDAC2; HDAC3; HDAC4; HDAC5; HDAC6; HDAC7; HDAC8; HDAC9        
##  3 HC-toxin                SKB   trt_cp up    0.879 0.00000527 0.0000938  2.17  2.17     150       150 HDAC1                                                                        
##  4 XMD-892                 SKB   trt_cp up    0.641 0.0000156  0.0000938  1.58  1.58     150       150 DCLK2; LRRK2; MAPK7; PLK4; TNK1                                              
##  5 pyroxamide              SKB   trt_cp up    0.629 0.0000161  0.0000938  1.55  1.55     150       150 HDAC1; HDAC3; HDAC6                                                          
##  6 topotecan               SKB   trt_cp up    0.496 0.0000219  0.0000938  1.23  1.23     150       150 ABCB1; ABCG2; TOP1; TOP1MT                                                   
##  7 EI-346-erlotinib-analog SKB   trt_cp up    0.462 0.0000234  0.0000938  1.14  1.14     150       150 EGFR                                                                         
##  8 APHA-compound-8         SKB   trt_cp up    0.455 0.0000237  0.0000938  1.12  1.12     150       150 HDAC8                                                                        
##  9 BW-B70C                 SKB   trt_cp up    0.449 0.0000240  0.0000938  1.11  1.11     150       150 ALOX5                                                                        
## 10 latrunculin-b           SKB   trt_cp up    0.449 0.0000240  0.0000938  1.11  1.11     150       150 ACTA1; MKL1; SPIRE2                                                          
## # ... with 90 more rows
…
NCSct: The NCS is summarized across cell types as follows. Given a vector of \(NCS\) values for perturbagen \(p\), relative to query \(q\), across all cell lines \(c\) in which \(p\) was profiled, a cell-summarized connectivity score is obtained using a maximum quantile statistic. It compares the 67 and 33 quantiles of \(NCSp,c\) and retains whichever is of higher absolute magnitude.

Tau: The standardized score Tau compares an observed \(NCS\) to a large set of \(NCS\) values that have been pre-computed for a specific reference database. The query results are scored with Tau as a standardized measure ranging from 100 to -100. A Tau of 90 indicates that only 10% of reference perturbations exhibit stronger connectivity to the query. This way one can make more meaningful comparisons across query results.

3.4 gCMAP Search Method

The Bioconductor gCMAP (Sandmann et al. 2014) package provides access to a related but not identical implementation of the original CMAP algorithm proposed by Lamb et al. (2006). It uses as query a rank transformed GES and the reference database is composed of the labels of up and down regulated DEG sets. This is the opposite situation of the CMAP method, where the query is composed of the labels of up and down regulated DEGs and the database contains rank transformed GESs.

In case of the gCMAP GESS method, the query GES is a matrix with a single column representing gene ranks from a biological state of interest, here vorinostat treatment in SKB cells. The corresponding gene labels are stored in the row name slot of the matrix. Instead of ranks one can provide scores (e.g. z-scores) as in the example given below. In such a case the scores will be internally transformed to ranks. The reference database consists of gene label sets that were extracted from the toy databases by applying a higher and lower filter, here set to 1 and -1, respectively.

qsig_gcmap <- qSig(query = query_mat, gess_method = "gCMAP", refdb = db_path)
gcmap <- gess_gcmap(qsig_gcmap, higher=1, lower=-1)
result(gcmap)

## # A tibble: 100 x 9
##    pert             cell  type   trend effect  nSet nFound signed t_gn_sym                                                                                                                              
##    <chr>            <chr> <chr>  <fct>  <dbl> <dbl>  <dbl> <lgl>  <chr>                                                                                                                                 
##  1 vorinostat       SKB   trt_cp up     1      2555   2555 TRUE   HDAC1; HDAC10; HDAC11; HDAC2; HDAC3; HDAC4; HDAC5; HDAC6; HDAC7; HDAC8; HDAC9                                                         
##  2 thiocolchicoside SKB   trt_cp down  -1      9374   9374 TRUE   GABRA2; GABRA3; GABRA4; GABRA5; GABRA6; GABRB1; GABRB2; GABRB3; GABRD; GABRE; GABRG1; GABRG2; GABRG3; GABRP; GABRQ; GLRA1; GLRB; TNFS~
##  3 PP-3             SKB   trt_cp up     0.999  7430   7430 TRUE   <NA>                                                                                                                                  
##  4 BCL2-inhibitor   SKB   trt_cp up     0.998  2831   2831 TRUE   BCL2                                                                                                                                  
##  5 trichostatin-a   SKB   trt_cp up     0.998  3443   3443 TRUE   HDAC1; HDAC10; HDAC2; HDAC3; HDAC4; HDAC5; HDAC6; HDAC7; HDAC8; HDAC9                                                                 
##  6 HC-toxin         SKB   trt_cp up     0.998  4316   4316 TRUE   HDAC1                                                                                                                                 
##  7 XMD-892          SKB   trt_cp up     0.993  1353   1353 TRUE   DCLK2; LRRK2; MAPK7; PLK4; TNK1                                                                                                       
##  8 homosalate       SKB   trt_cp down  -0.992  2207   2207 TRUE   AR; PGR                                                                                                                               
##  9 Ro-04-5595       SKB   trt_cp down  -0.989  4008   4008 TRUE   <NA>                                                                                                                                  
## 10 etomidate        SKB   trt_cp down  -0.988  1100   1100 TRUE   ADRA2B; CYP11B1; GABRA2; GABRA3; GABRA4; GABRA5; GABRA6; GABRB1; GABRB2; GABRB3; GABRD; GABRE; GABRG1; GABRG2; GABRG3; GABRP; GABRQ   
## # ... with 90 more rows
…
3.5 Fisher Search Method

Fishers exact test (Graham J. G. Upton 1992) can also be used to search a GES databases for entries that are similar to a query GES. In this case both the query and the database are composed of gene label sets, such as DEG sets.

In the following example, both the query and the refdb used under the qSig call are genome-wide signatures, here z-scores. The actual gene sets required for the Fishers exact test are obtained by setting the higher and lower cutoffs to 1 and -1, respectively.

qsig_fisher <- qSig(query = query_mat, gess_method = "Fisher", refdb = db_path)
fisher <- gess_fisher(qSig=qsig_fisher, higher=1, lower=-1)

## Loading required package: bigmemory

result(fisher)

## # A tibble: 100 x 12
##    pert       cell  type   trend      pval      padj effect      LOR  nSet nFound signed t_gn_sym                                                                                                       
##    <chr>      <chr> <chr>  <fct>     <dbl>     <dbl>  <dbl>    <dbl> <dbl>  <dbl> <lgl>  <chr>                                                                                                          
##  1 vorinostat SKB   trt_cp over  0.        0.          37.5  Inf      2555   2555 FALSE  HDAC1; HDAC10; HDAC11; HDAC2; HDAC3; HDAC4; HDAC5; HDAC6; HDAC7; HDAC8; HDAC9                                  
##  2 trichosta~ SKB   trt_cp over  0.        0.          37.5    1.98   3443   1600 FALSE  HDAC1; HDAC10; HDAC2; HDAC3; HDAC4; HDAC5; HDAC6; HDAC7; HDAC8; HDAC9                                          
##  3 HC-toxin   SKB   trt_cp over  8.05e-286 2.68e-284   36.1    1.66   4316   1686 FALSE  HDAC1                                                                                                          
##  4 CDC        SKB   trt_cp under 1.42e- 54 3.54e- 53  -15.6   -0.746  4799    660 FALSE  ALOX12; ALOX5                                                                                                  
##  5 AM-92016   SKB   trt_cp under 4.38e- 42 7.38e- 41  -13.6   -0.608  6709   1085 FALSE  GRIN1; GRIN2B                                                                                                  
##  6 nonoxynol~ SKB   trt_cp under 4.43e- 42 7.38e- 41  -13.6   -0.632  5214    782 FALSE  <NA>                                                                                                           
##  7 estrone    SKB   trt_cp under 2.02e- 40 2.89e- 39  -13.3   -0.702  3578    478 FALSE  AR; BPNT1; CYP19A1; CYP2A6; ESR1; ESR2; HSD17B1; HSD17B11; HSD17B12; HSD17B2; HSD17B6; HSD17B7; HSD17B8; SHBG;~
##  8 pyroxamide SKB   trt_cp over  1.16e- 36 1.45e- 35   12.6    0.796  1438    491 FALSE  HDAC1; HDAC3; HDAC6                                                                                            
##  9 BAS-09104~ SKB   trt_cp under 1.45e- 36 1.61e- 35  -12.6   -0.748  2727    339 FALSE  <NA>                                                                                                           
## 10 butoconaz~ SKB   trt_cp under 2.74e- 32 2.74e- 31  -11.8   -0.594  3979    581 FALSE  CYP51A1                                                                                                        
## # ... with 90 more rows
…
3.6.1 CORall

The following example runs a correlation-based search with the Spearman method using all genes present in the reference database. The GESs used for both the query and refdb are z-scores. The gess_cor function also supports Pearson and Kendall correlation coefficients by assigning the corresponding names to the method argument. For details, users want to consult the help file of the gess_cor function.

qsig_sp <- qSig(query = query_mat, gess_method = "Cor", refdb = db_path)
sp <- gess_cor(qSig=qsig_sp, method="spearman")
result(sp)

## # A tibble: 100 x 6
##    pert            cell  type   trend cor_score t_gn_sym                                                                            
##    <chr>           <chr> <chr>  <chr>     <dbl> <chr>                                                                               
##  1 vorinostat      SKB   trt_cp up        1     HDAC1; HDAC10; HDAC11; HDAC2; HDAC3; HDAC4; HDAC5; HDAC6; HDAC7; HDAC8; HDAC9       
##  2 trichostatin-a  SKB   trt_cp up        0.693 HDAC1; HDAC10; HDAC2; HDAC3; HDAC4; HDAC5; HDAC6; HDAC7; HDAC8; HDAC9               
##  3 HC-toxin        SKB   trt_cp up        0.631 HDAC1                                                                               
##  4 pyroxamide      SKB   trt_cp up        0.314 HDAC1; HDAC3; HDAC6                                                                 
##  5 XMD-892         SKB   trt_cp up        0.223 DCLK2; LRRK2; MAPK7; PLK4; TNK1                                                     
##  6 thalidomide     SKB   trt_cp down     -0.172 CRBN; CYP1A2; CYP2B6; CYP3A5; DDB1; FGF2; FGFR2; IL10; NFKB1; ORM1; ORM2; TNF; VEGFA
##  7 LY-255283       SKB   trt_cp up        0.156 LTB4R; LTB4R2                                                                       
##  8 BW-B70C         SKB   trt_cp up        0.155 ALOX5                                                                               
##  9 moxifloxacin    SKB   trt_cp down     -0.155 TOP2A; TOP2B                                                                        
## 10 APHA-compound-8 SKB   trt_cp up        0.143 HDAC8                                                                               
## # ... with 90 more rows
…
